{
  "project_info": {
    "project_number": "724399989087",
    "firebase_url": "https://turek-mobi-app.firebaseio.com",
    "project_id": "turek-mobi-app",
    "storage_bucket": "turek-mobi-app.appspot.com"
  },
  "client": [
    {
      "client_info": {
        "mobilesdk_app_id": "1:724399989087:android:1a5dc018c7f8aa66",
        "android_client_info": {
          "package_name": "com.lukaszjok.mturek"
        }
      },
      "oauth_client": [
        {
          "client_id": "724399989087-fc5rtenaq2gjioc4gi14cvlr979gobno.apps.googleusercontent.com",
          "client_type": 3
        }
      ],
      "api_key": [
        {
          "current_key": "AIzaSyApOJwUh3zKHNW4uChLZbe6VsV_N7os1j4"
        }
      ],
      "services": {
        "appinvite_service": {
          "other_platform_oauth_client": [
            {
              "client_id": "724399989087-fc5rtenaq2gjioc4gi14cvlr979gobno.apps.googleusercontent.com",
              "client_type": 3
            }
          ]
        }
      }
    }
  ],
  "configuration_version": "1"
}